{
  "kind": "collectionType",
  "collectionName": "products",
  "info": {
    "singularName": "product",
    "pluralName": "products",
    "displayName": "Product",
    "description": ""
  },
  "options": {
    "draftAndPublish": true
  },
  "pluginOptions": {},
  "attributes": {
    "name": {
      "type": "string"
    },
    "description": {
      "type": "text"
    },
    "price": {
      "type": "decimal"
    },
    "quantity": {
      "type": "integer"
    },
    "stocks": {
      "type": "relation",
      "relation": "oneToMany",
      "target": "api::stock.stock",
      "mappedBy": "product"
    }
  }
}
